%YAML 1.1
%TAG !u! tag:unity3d.com,2011:
--- !u!114 &11400000
MonoBehaviour:
  m_ObjectHideFlags: 0
  m_CorrespondingSourceObject: {fileID: 0}
  m_PrefabInstance: {fileID: 0}
  m_PrefabAsset: {fileID: 0}
  m_GameObject: {fileID: 0}
  m_Enabled: 1
  m_EditorHideFlags: 0
  m_Script: {fileID: 11500000, guid: 41e9bda8f3cf1492fa74926a530f6f70, type: 3}
  m_Name: Chaser_PlayerBrain
  m_EditorClassIdentifier: 
  brainParameters:
    vectorObservationSize: 11
    numStackedVectorObservations: 1
    vectorActionSize: 02000000
    cameraResolutions: []
    vectorActionDescriptions:
    - Horizontal
    - Vertical
    vectorActionSpaceType: 1
  keyContinuousPlayerActions: []
  axisContinuousPlayerActions:
  - axis: Vertical
    index: 0
    scale: 1
  - axis: Horizontal
    index: 1
    scale: 1
  discretePlayerActions: []
